{
 "parent": "tardis:obtain_tardis",
  "display": {
    "icon": {
      "item": "minecraft:nautilus_shell"
    },
    "title": {
      "translate": "advancements.tardis.interior.nemo"
    },
    "description": {
      "translate": "advancements.tardis.interior.nemo.desc"
    },
    "frame": "task",
    "show_toast": true,
    "announce_to_chat": true,
    "hidden": false
  },
  "criteria": {
    "nautilus": {
      "trigger": "minecraft:inventory_changed",
      "conditions": {
        "items": [
          {
            "item": "minecraft:nautilus_shell"
          }
        ]
      }
    }
  },
  "requirments":[
  	[
  		"nautilus"
  	]
  ]
}