{
	"credit": "Made with Blockbench",
	"textures": {
		"0": "tardis:item/battery"
	},
	"elements": [
		{
			"name": "base_bottom",
			"from": [8, 8, 8],
			"to": [10, 9, 10],
			"faces": {
				"north": {"uv": [11, 11, 13, 12], "texture": "#0"},
				"east": {"uv": [10, 9, 12, 10], "texture": "#0"},
				"south": {"uv": [11, 10, 13, 11], "texture": "#0"},
				"west": {"uv": [12, 11, 14, 12], "texture": "#0"},
				"up": {"uv": [11, 11, 13, 13], "texture": "#0"},
				"down": {"uv": [10, 10, 12, 12], "texture": "#0"}
			}
		},
		{
			"name": "base_top",
			"from": [8, 12.5, 8],
			"to": [10, 13.5, 10],
			"faces": {
				"north": {"uv": [11, 9, 13, 10], "texture": "#0"},
				"east": {"uv": [13, 10, 15, 11], "texture": "#0"},
				"south": {"uv": [14, 9, 16, 10], "texture": "#0"},
				"west": {"uv": [11, 9, 13, 10], "texture": "#0"},
				"up": {"uv": [10, 10, 12, 12], "texture": "#0"},
				"down": {"uv": [8, 10, 10, 12], "texture": "#0"}
			}
		},
		{
			"name": "cell",
			"from": [8.25, 9, 8.25],
			"to": [9.75, 12.5, 9.75],
			"faces": {
				"north": {"uv": [12, 1.5, 13.5, 5.5], "texture": "#0"},
				"east": {"uv": [12, 1.5, 13.5, 5.5], "texture": "#0"},
				"south": {"uv": [12, 1.5, 13.5, 5.5], "texture": "#0"},
				"west": {"uv": [12, 1.5, 13.5, 5.5], "texture": "#0"},
				"up": {"uv": [8, 9, 9.5, 10.5], "texture": "#0"},
				"down": {"uv": [9, 9, 10.5, 10.5], "texture": "#0"}
			}
		},
		{
			"from": [8.87671, 9.33684, 7.86011],
			"to": [9.12671, 12.08684, 8.11011],
			"rotation": {"angle": 0, "axis": "y", "origin": [9.00171, 9.83684, 8.23511]},
			"faces": {
				"north": {"uv": [0, 9, 0.25, 11.75], "texture": "#0"},
				"east": {"uv": [0, 9, 0.25, 11.75], "texture": "#0"},
				"south": {"uv": [0, 9, 0.25, 11.75], "texture": "#0"},
				"west": {"uv": [0, 9, 0.25, 11.75], "texture": "#0"},
				"up": {"uv": [0, 9, 0.25, 9.25], "texture": "#0"},
				"down": {"uv": [0, 9, 0.25, 9.25], "texture": "#0"}
			}
		},
		{
			"from": [8.875, 8.875, 7.80069],
			"to": [9.125, 9.375, 8.05069],
			"rotation": {"angle": -22.5, "axis": "x", "origin": [9.12464, 9.5086, 7.92569]},
			"faces": {
				"north": {"uv": [0, 9, 0.25, 9.5], "texture": "#0"},
				"east": {"uv": [0, 9, 0.25, 9.5], "texture": "#0"},
				"south": {"uv": [0, 0, 0.25, 0.5], "texture": "#0"},
				"west": {"uv": [0, 9, 0.25, 9.5], "texture": "#0"},
				"up": {"uv": [0, 9, 0.25, 9.25], "texture": "#0"},
				"down": {"uv": [0, 9, 0.25, 9.25], "texture": "#0"}
			}
		},
		{
			"from": [8.87624, 12.00044, 8.04291],
			"to": [9.12624, 12.50044, 8.29291],
			"rotation": {"angle": 22.5, "axis": "x", "origin": [9.00124, 12.50044, 8.16791]},
			"faces": {
				"north": {"uv": [0, 9, 0.25, 9.5], "texture": "#0"},
				"east": {"uv": [0, 9, 0.25, 9.5], "texture": "#0"},
				"south": {"uv": [0, 9, 0.25, 9.5], "texture": "#0"},
				"west": {"uv": [0, 9, 0.25, 9.5], "texture": "#0"},
				"up": {"uv": [0, 9, 0.25, 9.25], "texture": "#0"},
				"down": {"uv": [0, 9, 0.25, 9.25], "texture": "#0"}
			}
		},
		{
			"from": [8.87671, 9.33684, 9.88989],
			"to": [9.12671, 12.08684, 10.13989],
			"rotation": {"angle": 0, "axis": "y", "origin": [9.00171, 9.83684, 9.76489]},
			"faces": {
				"north": {"uv": [0.25, 9, 0.5, 11.75], "texture": "#0"},
				"east": {"uv": [0.25, 9, 0.5, 11.75], "texture": "#0"},
				"south": {"uv": [0.25, 9, 0.5, 11.75], "texture": "#0"},
				"west": {"uv": [0.25, 9, 0.5, 11.75], "texture": "#0"},
				"up": {"uv": [0, 9, 0.25, 9.25], "texture": "#0"},
				"down": {"uv": [0, 9, 0.25, 9.25], "texture": "#0"}
			}
		},
		{
			"from": [8.875, 8.875, 9.94931],
			"to": [9.125, 9.375, 10.19931],
			"rotation": {"angle": 22.5, "axis": "x", "origin": [9.12464, 9.5086, 10.07431]},
			"faces": {
				"north": {"uv": [0.25, 9, 0.5, 9.5], "texture": "#0"},
				"east": {"uv": [0.25, 9, 0.5, 9.5], "texture": "#0"},
				"south": {"uv": [0.25, 9, 0.5, 9.5], "texture": "#0"},
				"west": {"uv": [0.25, 9, 0.5, 9.5], "texture": "#0"},
				"up": {"uv": [0, 9, 0.25, 9.25], "texture": "#0"},
				"down": {"uv": [0, 9, 0.25, 9.25], "texture": "#0"}
			}
		},
		{
			"from": [8.87624, 12.00044, 9.70709],
			"to": [9.12624, 12.50044, 9.95709],
			"rotation": {"angle": -22.5, "axis": "x", "origin": [9.00124, 12.50044, 9.83209]},
			"faces": {
				"north": {"uv": [0.25, 9, 0.5, 9.5], "texture": "#0"},
				"east": {"uv": [0.25, 9, 0.5, 9.5], "texture": "#0"},
				"south": {"uv": [0.25, 9, 0.5, 9.5], "texture": "#0"},
				"west": {"uv": [0.25, 9, 0.5, 9.5], "texture": "#0"},
				"up": {"uv": [0, 9, 0.25, 9.25], "texture": "#0"},
				"down": {"uv": [0, 9, 0.25, 9.25], "texture": "#0"}
			}
		},
		{
			"from": [7.86837, 9.31992, 8.87476],
			"to": [8.11837, 12.06992, 9.12476],
			"rotation": {"angle": 0, "axis": "y", "origin": [8.12008, 9.81992, 8.76465]},
			"faces": {
				"north": {"uv": [0.25, 9, 0.5, 11.75], "texture": "#0"},
				"east": {"uv": [0.25, 9, 0.5, 11.75], "texture": "#0"},
				"south": {"uv": [0.25, 9, 0.5, 11.75], "texture": "#0"},
				"west": {"uv": [0.25, 9, 0.5, 11.75], "texture": "#0"},
				"up": {"uv": [0, 9, 0.25, 9.25], "rotation": 90, "texture": "#0"},
				"down": {"uv": [0, 9, 0.25, 9.25], "rotation": 270, "texture": "#0"}
			}
		},
		{
			"from": [7.89629, 8.875, 8.875],
			"to": [8.14629, 9.375, 9.125],
			"rotation": {"angle": 22.5, "axis": "z", "origin": [8.02129, 9.27709, 9.87501]},
			"faces": {
				"north": {"uv": [0.25, 9, 0.5, 9.5], "texture": "#0"},
				"east": {"uv": [0.25, 9, 0.5, 9.5], "texture": "#0"},
				"south": {"uv": [0.25, 9, 0.5, 9.5], "texture": "#0"},
				"west": {"uv": [0.25, 9, 0.5, 9.5], "texture": "#0"},
				"up": {"uv": [0, 9, 0.25, 9.25], "rotation": 90, "texture": "#0"},
				"down": {"uv": [0, 9, 0.25, 9.25], "rotation": 270, "texture": "#0"}
			}
		},
		{
			"from": [8.05516, 12.0094, 8.87447],
			"to": [8.30516, 12.5094, 9.12447],
			"rotation": {"angle": -22.5, "axis": "z", "origin": [8.11467, 12.5094, 8.76389]},
			"faces": {
				"north": {"uv": [0.25, 9, 0.5, 9.5], "texture": "#0"},
				"east": {"uv": [0.25, 9, 0.5, 9.5], "texture": "#0"},
				"south": {"uv": [0.25, 9, 0.5, 9.5], "texture": "#0"},
				"west": {"uv": [0.25, 9, 0.5, 9.5], "texture": "#0"},
				"up": {"uv": [0, 9, 0.25, 9.25], "rotation": 90, "texture": "#0"},
				"down": {"uv": [0, 9, 0.25, 9.25], "rotation": 270, "texture": "#0"}
			}
		},
		{
			"from": [9.88163, 9.31992, 8.87476],
			"to": [10.13163, 12.06992, 9.12476],
			"rotation": {"angle": 0, "axis": "y", "origin": [9.87992, 9.81992, 8.76465]},
			"faces": {
				"north": {"uv": [0.5, 9, 0.75, 11.75], "texture": "#0"},
				"east": {"uv": [0.5, 9, 0.75, 11.75], "texture": "#0"},
				"south": {"uv": [0.5, 9, 0.75, 11.75], "texture": "#0"},
				"west": {"uv": [0.5, 9, 0.75, 11.75], "texture": "#0"},
				"up": {"uv": [0, 9, 0.25, 9.25], "rotation": 90, "texture": "#0"},
				"down": {"uv": [0, 9, 0.25, 9.25], "rotation": 270, "texture": "#0"}
			}
		},
		{
			"from": [9.85371, 8.875, 8.875],
			"to": [10.10371, 9.375, 9.125],
			"rotation": {"angle": -22.5, "axis": "z", "origin": [9.97871, 9.27709, 9.87501]},
			"faces": {
				"north": {"uv": [0.5, 9, 0.75, 9.5], "texture": "#0"},
				"east": {"uv": [0.5, 9, 0.75, 9.5], "texture": "#0"},
				"south": {"uv": [0.5, 9, 0.75, 9.5], "texture": "#0"},
				"west": {"uv": [0, 9, 0.25, 9.5], "texture": "#0"},
				"up": {"uv": [0, 9, 0.25, 9.25], "rotation": 90, "texture": "#0"},
				"down": {"uv": [0, 9, 0.25, 9.25], "rotation": 270, "texture": "#0"}
			}
		},
		{
			"from": [9.69484, 12.0094, 8.87447],
			"to": [9.94484, 12.5094, 9.12447],
			"rotation": {"angle": 22.5, "axis": "z", "origin": [9.88533, 12.5094, 8.76389]},
			"faces": {
				"north": {"uv": [0.5, 9, 0.75, 9.5], "texture": "#0"},
				"east": {"uv": [0.5, 9, 0.75, 9.5], "texture": "#0"},
				"south": {"uv": [0.5, 9, 0.75, 9.5], "texture": "#0"},
				"west": {"uv": [0.5, 9, 0.75, 9.5], "texture": "#0"},
				"up": {"uv": [0, 9, 0.25, 9.25], "rotation": 90, "texture": "#0"},
				"down": {"uv": [0, 9, 0.25, 9.25], "rotation": 270, "texture": "#0"}
			}
		}
	],
	"display": {
		"thirdperson_righthand": {
			"translation": [-0.5, -1.5, 0.5],
			"scale": [0.5, 0.5, 0.5]
		},
		"thirdperson_lefthand": {
			"translation": [0.5, -1.5, 0.5],
			"scale": [0.5, 0.5, 0.5]
		},
		"gui": {
			"rotation": [30, 135, 0],
			"translation": [0, -6.5, 0],
			"scale": [2, 2, 2]
		},
		"fixed": {
			"translation": [-2, -4.75, -1.25],
			"scale": [2, 2, 2]
		}
	},
	"groups": [0, 1, 2,
		{
			"name": "wires",
			"origin": [9.00124, 12.50044, 8.16791],
			"children": [3, 4, 5]
		},
		{
			"name": "wires2",
			"origin": [9.00124, 12.50044, 8.16791],
			"children": [6, 7, 8]
		},
		{
			"name": "wires3",
			"origin": [9.00124, 12.50044, 8.16791],
			"children": [9, 10, 11]
		},
		{
			"name": "wires4",
			"origin": [9.00124, 12.50044, 8.16791],
			"children": [12, 13, 14]
		}
	]
}