{
	"parent":"tardis:block/invis",
	"display":{
		"gui":{
			"rotation":[22.5, 45, 0],
			"scale" : [1.5, 1.5, 1.5],
			"translation":[0, -1, 0]
		},
		"inventory":{
			"rotation": [90, 45, 135],
			"translation": [0, 0, 0],
			"scale": [0.75, 0.75, 0.75]
		}
	}
}