{
	"lines":[
	"Protocols"
	,""
	," Turning your attention to your time-ship's monitor, you'll notice a lot of helpful information for flight."
	," When you interact with it, there is a multitude of different menus and submenus"
	]
}