{
	"lines":[
	"Refueler"
	,""
	," This activates your time-ship's refuling circuits, absorbing nearby time radiation (Artron) to use as fuel. Some places have more than others, especially places where the veil betwixt worlds is thin."
	]
}