{
  "replace": false,
  "values": [
    "tardis:roundel_alabaster",
    "tardis:roundel_offset_alabaster",
    "tardis:roundel_wood_oak",
    "tardis:roundel_offset_wood_oak",
    "tardis:roundel_wood_spruce",
    "tardis:roundel_offset_wood_spruce",
    "tardis:roundel_wood_birch",
    "tardis:roundel_offset_wood_birch",
    "tardis:roundel_wood_jungle",
    "tardis:roundel_offset_wood_jungle",
    "tardis:roundel_wood_acacia",
    "tardis:roundel_offset_wood_acacia",
    "tardis:roundel_wood_dark_oak",
    "tardis:roundel_offset_wood_dark_oak",
    "tardis:roundel_concrete_white",
    "tardis:roundel_offset_concrete_white",
    "tardis:roundel_concrete_orange",
    "tardis:roundel_offset_concrete_orange",
    "tardis:roundel_concrete_magenta",
    "tardis:roundel_offset_concrete_magenta",
    "tardis:roundel_concrete_light_blue",
    "tardis:roundel_offset_concrete_light_blue",
    "tardis:roundel_concrete_yellow",
    "tardis:roundel_offset_concrete_yellow",
    "tardis:roundel_concrete_lime",
    "tardis:roundel_offset_concrete_lime",
    "tardis:roundel_concrete_pink",
    "tardis:roundel_offset_concrete_pink",
    "tardis:roundel_concrete_gray",
    "tardis:roundel_offset_concrete_gray",
    "tardis:roundel_concrete_light_gray",
    "tardis:roundel_offset_concrete_light_gray",
    "tardis:roundel_concrete_cyan",
    "tardis:roundel_offset_concrete_cyan",
    "tardis:roundel_concrete_purple",
    "tardis:roundel_offset_concrete_purple",
    "tardis:roundel_concrete_blue",
    "tardis:roundel_offset_concrete_blue",
    "tardis:roundel_concrete_brown",
    "tardis:roundel_offset_concrete_brown",
    "tardis:roundel_concrete_green",
    "tardis:roundel_offset_concrete_green",
    "tardis:roundel_concrete_red",
    "tardis:roundel_offset_concrete_red",
    "tardis:roundel_concrete_black",
    "tardis:roundel_offset_concrete_black",
    "tardis:roundel_terracotta_white",
    "tardis:roundel_offset_terracotta_white",
    "tardis:roundel_terracotta_orange",
    "tardis:roundel_offset_terracotta_orange",
    "tardis:roundel_terracotta_magenta",
    "tardis:roundel_offset_terracotta_magenta",
    "tardis:roundel_terracotta_light_blue",
    "tardis:roundel_offset_terracotta_light_blue",
    "tardis:roundel_terracotta_yellow",
    "tardis:roundel_offset_terracotta_yellow",
    "tardis:roundel_terracotta_lime",
    "tardis:roundel_offset_terracotta_lime",
    "tardis:roundel_terracotta_pink",
    "tardis:roundel_offset_terracotta_pink",
    "tardis:roundel_terracotta_gray",
    "tardis:roundel_offset_terracotta_gray",
    "tardis:roundel_terracotta_light_gray",
    "tardis:roundel_offset_terracotta_light_gray",
    "tardis:roundel_terracotta_cyan",
    "tardis:roundel_offset_terracotta_cyan",
    "tardis:roundel_terracotta_purple",
    "tardis:roundel_offset_terracotta_purple",
    "tardis:roundel_terracotta_blue",
    "tardis:roundel_offset_terracotta_blue",
    "tardis:roundel_terracotta_brown",
    "tardis:roundel_offset_terracotta_brown",
    "tardis:roundel_terracotta_green",
    "tardis:roundel_offset_terracotta_green",
    "tardis:roundel_terracotta_red",
    "tardis:roundel_offset_terracotta_red",
    "tardis:roundel_terracotta_black",
    "tardis:roundel_offset_terracotta_black",
    "tardis:roundel_quartz",
    "tardis:roundel_quartz_pillar",
    "tardis:roundel_chiselled_quartz",
    "tardis:tech_wall_dark_runner_lights",
    "tardis:tardis_engine",
    "tardis:comfy_chair",
    "tardis:comfy_chair_green",
    "tardis:metal_grate",
    "tardis:metal_grate_slab",
    "tardis:metal_grate_stairs",
    "tardis:steel_grate_solid",
    "tardis:steel_grate_solid_offset",
    "tardis:steel_grate_frame",
    "tardis:steel_grate_frame_offset",
    "tardis:gallifreyan_yellow_slab",
    "tardis:yellow_crystal",
    "tardis:blue_concrete_slab",
    "tardis:yellow_crystal_slab",
    "tardis:yellow_crystal_stairs",
    "tardis:blue_pillar",
    "tardis:foam_pipes",
    "tardis:three_point_lamp",
    "tardis:tech_floor_dark_pattern",
    "tardis:tech_floor_dark_pipes",
    "tardis:tech_floor_dark_plate",
    "tardis:tech_floor_plate",
    "tardis:tech_wall_dark_runner_lights",
    "tardis:tech_wall_dark_blank",
    "tardis:tech_strut",
    "tardis:alabaster_wall",
    "tardis:alabaster",
    "tardis:alabaster_stairs",
    "tardis:alabaster_slab",
    "tardis:anti_grav",
    "tardis:wire_hang"
  ]
}
